# 3ds Max Wavefront OBJ Exporter v0.97b - (c)2007 guruware
# File Created: 25.04.2020 13:20:28

mtllib Speaker.mtl

#
# object SpeakerBox
#

v  1.7728 14.8554 6.1276
v  1.7728 17.2615 7.5168
v  10.0653 17.2615 7.5168
v  10.0653 14.8554 6.1276
v  10.0653 13.0695 3.9992
v  1.7728 13.0695 3.9992
v  1.7728 13.0695 -4.0008
v  1.7728 12.1192 -1.3900
v  10.0653 12.1192 -1.3900
v  10.0653 13.0695 -4.0008
v  1.7728 17.2615 -7.5183
v  1.7728 14.8554 -6.1291
v  10.0653 14.8554 -6.1291
v  10.0653 17.2615 -7.5183
v  1.7728 19.9977 -8.0008
v  10.0653 19.9977 -8.0008
v  10.0653 22.7339 -7.5183
v  1.7728 22.7339 -7.5183
v  1.7728 25.1400 -6.1291
v  10.0653 25.1400 -6.1291
v  1.7728 19.9977 7.9992
v  10.0653 19.9977 7.9992
v  10.0653 0.0000 10.0661
v  -9.9347 0.0000 10.0576
v  -9.9347 0.0000 -9.9424
v  10.0653 0.0000 -9.9339
v  -9.9347 40.0000 -9.9424
v  -9.9347 40.0000 10.0576
v  10.0653 40.0000 10.0661
v  10.0653 40.0000 -9.9339
v  10.0653 12.1192 1.3884
v  1.7728 12.1192 1.3884
v  1.7728 26.9259 -4.0008
v  10.0653 26.9259 -4.0008
v  1.7728 27.8762 -1.3900
v  10.0653 27.8762 -1.3900
v  1.7728 27.8762 1.3884
v  10.0653 27.8762 1.3884
v  10.0653 26.9259 3.9992
v  1.7728 26.9259 3.9992
v  10.0653 25.1400 6.1276
v  1.7728 25.1400 6.1276
v  10.0653 22.7339 7.5168
v  1.7728 22.7339 7.5168
v  10.0653 29.9719 0.7166
v  6.4979 29.9719 0.7166
v  6.4979 30.4470 2.0220
v  10.0653 30.4470 2.0220
v  10.0653 29.9719 -0.6726
v  6.4979 29.9719 -0.6726
v  10.0653 30.4470 -1.9780
v  6.4979 30.4470 -1.9780
v  10.0653 31.3400 -3.0422
v  6.4979 31.3400 -3.0422
v  10.0653 32.5430 -3.7368
v  6.4979 32.5430 -3.7368
v  10.0653 33.9111 -3.9780
v  6.4979 33.9111 -3.9780
v  10.0653 35.2792 -3.7368
v  6.4979 35.2792 -3.7368
v  10.0653 36.4823 -3.0422
v  6.4979 36.4823 -3.0422
v  10.0653 37.3752 -1.9780
v  6.4979 37.3752 -1.9780
v  10.0653 37.8503 -0.6726
v  6.4979 37.8503 -0.6726
v  10.0653 37.8503 0.7166
v  6.4979 37.8503 0.7166
v  10.0653 37.3752 2.0220
v  6.4979 37.3752 2.0220
v  10.0653 36.4823 3.0862
v  6.4979 36.4823 3.0862
v  10.0653 35.2792 3.7808
v  6.4979 35.2792 3.7808
v  10.0653 33.9111 4.0220
v  6.4979 33.9111 4.0220
v  10.0653 32.5430 3.7808
v  6.4979 32.5430 3.7808
v  10.0653 31.3400 3.0862
v  6.4979 31.3400 3.0862
# 80 vertices

vn 0.0000 0.6428 -0.7660
vn 0.0000 0.3420 -0.9397
vn 0.0000 0.8660 -0.5000
vn 0.0000 0.8660 0.5000
vn 0.0000 0.9848 0.1737
vn 0.0000 0.3420 0.9397
vn 0.0000 0.6428 0.7660
vn 0.0000 0.0000 1.0000
vn 0.0000 -0.3420 0.9397
vn 0.0000 -0.6428 0.7660
vn 0.0000 0.0000 -1.0000
vn 0.0000 -1.0000 -0.0000
vn 0.0000 1.0000 -0.0000
vn -0.0004 0.0000 1.0000
vn 0.0004 0.0000 -1.0000
vn -1.0000 0.0000 -0.0000
vn 1.0000 0.0000 -0.0000
vn 0.0000 0.9848 -0.1737
vn 0.0000 -0.8660 0.5000
vn 0.0000 -0.9848 0.1737
vn 0.0000 -0.9848 -0.1737
vn 0.0000 -0.8660 -0.5000
vn 0.0000 -0.6428 -0.7660
vn 0.0000 -0.3420 -0.9397
vn 0.0000 0.9848 -0.1736
vn 0.0000 0.9848 0.1736
vn 0.0000 -0.9848 0.1736
vn 0.0000 -0.9848 -0.1736
# 28 vertex normals

vt 0.7170 0.5111 0.0000
vt 0.7170 0.5410 0.0000
vt 0.6141 0.5410 0.0000
vt 0.6141 0.5111 0.0000
vt 0.8716 0.2580 0.0000
vt 0.9744 0.2580 0.0000
vt 0.9744 0.2844 0.0000
vt 0.8716 0.2844 0.0000
vt 0.8716 0.3836 0.0000
vt 0.8716 0.3512 0.0000
vt 0.9744 0.3512 0.0000
vt 0.9744 0.3836 0.0000
vt 0.5068 0.5410 0.0000
vt 0.5068 0.5111 0.0000
vt 0.6097 0.5111 0.0000
vt 0.6097 0.5410 0.0000
vt 0.5068 0.5749 0.0000
vt 0.6097 0.5749 0.0000
vt 0.6097 0.6088 0.0000
vt 0.5068 0.6088 0.0000
vt 0.5068 0.6387 0.0000
vt 0.6097 0.6387 0.0000
vt 0.7170 0.5749 0.0000
vt 0.6141 0.5749 0.0000
vt 0.5111 0.5018 0.0000
vt 0.5112 0.2537 0.0000
vt 0.7593 0.2537 0.0000
vt 0.7592 0.5018 0.0000
vt 0.7514 0.2487 0.0000
vt 0.7514 0.0006 0.0000
vt 0.9995 0.0005 0.0000
vt 0.9995 0.2486 0.0000
vt 0.7498 0.2486 0.0000
vt 0.2537 0.2486 0.0000
vt 0.2537 0.0005 0.0000
vt 0.7498 0.0005 0.0000
vt 0.0005 0.9987 0.0000
vt 0.0005 0.5025 0.0000
vt 0.2486 0.5025 0.0000
vt 0.2486 0.9987 0.0000
vt 0.0005 0.5010 0.0000
vt 0.0005 0.0048 0.0000
vt 0.2486 0.0048 0.0000
vt 0.2486 0.5010 0.0000
vt 0.5018 0.7541 0.0000
vt 0.4718 0.5400 0.0000
vt 0.4778 0.5060 0.0000
vt 0.5018 0.2580 0.0000
vt 0.9744 0.3167 0.0000
vt 0.8716 0.3167 0.0000
vt 0.9744 0.4100 0.0000
vt 0.8716 0.4100 0.0000
vt 0.7643 0.2844 0.0000
vt 0.7643 0.2580 0.0000
vt 0.8671 0.2580 0.0000
vt 0.8671 0.2844 0.0000
vt 0.7643 0.3167 0.0000
vt 0.8671 0.3167 0.0000
vt 0.7643 0.3512 0.0000
vt 0.8671 0.3512 0.0000
vt 0.8671 0.3836 0.0000
vt 0.7643 0.3836 0.0000
vt 0.8671 0.4100 0.0000
vt 0.7643 0.4100 0.0000
vt 0.7170 0.6387 0.0000
vt 0.6141 0.6387 0.0000
vt 0.6141 0.6088 0.0000
vt 0.7170 0.6088 0.0000
vt 0.4195 0.7789 0.0000
vt 0.4416 0.8053 0.0000
vt 0.4534 0.8377 0.0000
vt 0.3896 0.7617 0.0000
vt 0.3848 0.5157 0.0000
vt 0.3848 0.4715 0.0000
vt 0.4010 0.4715 0.0000
vt 0.4010 0.5157 0.0000
vt 0.3676 0.5157 0.0000
vt 0.3676 0.4715 0.0000
vt 0.3514 0.5157 0.0000
vt 0.3514 0.4715 0.0000
vt 0.3382 0.5157 0.0000
vt 0.3382 0.4715 0.0000
vt 0.3870 0.5604 0.0000
vt 0.3870 0.5162 0.0000
vt 0.4019 0.5162 0.0000
vt 0.4019 0.5604 0.0000
vt 0.3701 0.5604 0.0000
vt 0.3701 0.5162 0.0000
vt 0.3531 0.5604 0.0000
vt 0.3531 0.5162 0.0000
vt 0.3382 0.5604 0.0000
vt 0.3382 0.5162 0.0000
vt 0.4142 0.4711 0.0000
vt 0.4010 0.4711 0.0000
vt 0.4010 0.4268 0.0000
vt 0.4142 0.4268 0.0000
vt 0.3848 0.4711 0.0000
vt 0.3848 0.4268 0.0000
vt 0.3676 0.4711 0.0000
vt 0.3676 0.4268 0.0000
vt 0.3514 0.4711 0.0000
vt 0.3514 0.4268 0.0000
vt 0.3382 0.4711 0.0000
vt 0.3382 0.4268 0.0000
vt 0.7686 0.4124 0.0000
vt 0.7835 0.4124 0.0000
vt 0.7835 0.4567 0.0000
vt 0.7686 0.4567 0.0000
vt 0.8005 0.4124 0.0000
vt 0.8005 0.4567 0.0000
vt 0.8174 0.4124 0.0000
vt 0.8174 0.4567 0.0000
vt 0.8324 0.4124 0.0000
vt 0.8324 0.4567 0.0000
vt 0.5141 0.7057 0.0000
vt 0.5111 0.6887 0.0000
vt 0.5141 0.6717 0.0000
vt 0.5227 0.6568 0.0000
vt 0.4142 0.4715 0.0000
vt 0.4142 0.5157 0.0000
vt 0.3869 0.6297 0.0000
vt 0.3696 0.6297 0.0000
vt 0.3613 0.6037 0.0000
vt 0.3958 0.6037 0.0000
vt 0.4163 0.7105 0.0000
vt 0.4249 0.6956 0.0000
vt 0.4279 0.6786 0.0000
vt 0.4282 0.5920 0.0000
vt 0.4031 0.6356 0.0000
vt 0.3534 0.6356 0.0000
vt 0.3289 0.5920 0.0000
vt 0.3402 0.6467 0.0000
vt 0.3316 0.6616 0.0000
vt 0.4163 0.6467 0.0000
vt 0.4249 0.6616 0.0000
vt 0.4031 0.7216 0.0000
vt 0.3869 0.7275 0.0000
vt 0.4546 0.5698 0.0000
vt 0.2537 0.7541 0.0000
vt 0.3025 0.5698 0.0000
vt 0.3696 0.7275 0.0000
vt 0.3534 0.7216 0.0000
vt 0.3402 0.7105 0.0000
vt 0.3316 0.6956 0.0000
vt 0.3286 0.6786 0.0000
vt 0.2853 0.5400 0.0000
vt 0.2793 0.5060 0.0000
vt 0.2537 0.2580 0.0000
vt 0.2853 0.4721 0.0000
vt 0.3025 0.4422 0.0000
vt 0.3289 0.4201 0.0000
vt 0.3613 0.4083 0.0000
vt 0.3958 0.4083 0.0000
vt 0.4282 0.4201 0.0000
vt 0.4546 0.4422 0.0000
vt 0.4718 0.4721 0.0000
vt 0.3557 0.9542 0.0000
vt 0.4416 0.9046 0.0000
vt 0.4195 0.9310 0.0000
vt 0.3896 0.9482 0.0000
vt 0.2919 0.9310 0.0000
vt 0.3217 0.9482 0.0000
vt 0.2580 0.8722 0.0000
vt 0.2697 0.9046 0.0000
vt 0.4534 0.8722 0.0000
vt 0.2580 0.8377 0.0000
vt 0.2919 0.7789 0.0000
vt 0.2697 0.8053 0.0000
vt 0.3557 0.7557 0.0000
vt 0.3217 0.7617 0.0000
vt 0.5694 0.6398 0.0000
vt 0.5855 0.6457 0.0000
vt 0.5987 0.6568 0.0000
vt 0.6074 0.6717 0.0000
vt 0.6104 0.6887 0.0000
vt 0.5521 0.6398 0.0000
vt 0.5987 0.7206 0.0000
vt 0.6074 0.7057 0.0000
vt 0.5694 0.7376 0.0000
vt 0.5855 0.7317 0.0000
vt 0.5359 0.7317 0.0000
vt 0.5521 0.7376 0.0000
vt 0.5359 0.6457 0.0000
vt 0.5227 0.7206 0.0000
# 184 texture coords

o SpeakerBox
g SpeakerBox
usemtl 03___Default
s 2
f 1/1/1 2/2/2 3/3/2 4/4/1 
f 1/5/1 4/6/1 5/7/3 6/8/3 
f 7/9/4 8/10/5 9/11/5 10/12/4 
f 11/13/6 12/14/7 13/15/7 14/16/6 
f 15/17/8 16/18/8 17/19/9 18/20/9 
f 19/21/10 18/20/9 17/19/9 20/22/10 
f 21/23/11 22/24/11 3/3/2 2/2/2 
f 23/25/12 24/26/12 25/27/12 26/28/12 
s 4
f 27/29/13 28/30/13 29/31/13 30/32/13 
s 8
f 23/33/14 29/34/14 28/35/14 24/36/14 
s 32
f 30/37/15 26/38/15 25/39/15 27/40/15 
s 64
f 27/41/16 25/42/16 24/43/16 28/44/16 
s 16
f 30/45/17 17/46/17 16/47/17 26/48/17 
s 2
f 5/7/3 31/49/18 32/50/18 6/8/3 
f 32/50/18 31/49/18 9/11/5 8/10/5 
f 7/9/4 10/12/4 13/51/7 12/52/7 
f 15/17/8 11/13/6 14/16/6 16/18/8 
f 33/53/19 19/54/10 20/55/10 34/56/19 
f 35/57/20 33/53/19 34/56/19 36/58/20 
f 37/59/21 35/57/20 36/58/20 38/60/21 
f 37/59/21 38/60/21 39/61/22 40/62/22 
f 40/62/22 39/61/22 41/63/23 42/64/23 
f 42/65/23 41/66/23 43/67/24 44/68/24 
f 44/68/24 43/67/24 22/24/11 21/23/11 
s 1
f 40/69/17 42/70/17 44/71/17 37/72/17 
s 2
f 45/73/25 46/74/25 47/75/3 48/76/3 
f 49/77/26 50/78/26 46/74/25 45/73/25 
f 49/77/26 51/79/4 52/80/4 50/78/26 
f 53/81/7 54/82/7 52/80/4 51/79/4 
f 55/83/6 56/84/6 54/85/7 53/86/7 
f 57/87/8 58/88/8 56/84/6 55/83/6 
f 57/87/8 59/89/9 60/90/9 58/88/8 
f 59/89/9 61/91/10 62/92/10 60/90/9 
f 61/93/10 63/94/19 64/95/19 62/96/10 
f 63/94/19 65/97/27 66/98/27 64/95/19 
f 65/97/27 67/99/28 68/100/28 66/98/27 
f 69/101/22 70/102/22 68/100/28 67/99/28 
f 69/101/22 71/103/23 72/104/23 70/102/22 
f 71/105/23 73/106/24 74/107/24 72/108/23 
f 73/106/24 75/109/11 76/110/11 74/107/24 
f 77/111/2 78/112/2 76/110/11 75/109/11 
f 79/113/1 80/114/1 78/112/2 77/111/2 
s 1
f 64/115/17 66/116/17 68/117/17 70/118/17 
s 2
f 48/76/3 47/75/3 80/119/1 79/120/1 
s 16
f 49/121/17 45/122/17 38/123/17 36/124/17 
f 30/45/17 61/125/17 59/126/17 57/127/17 
f 36/124/17 34/128/17 51/129/17 49/121/17 
f 48/130/17 39/131/17 38/123/17 45/122/17 
f 39/131/17 48/130/17 79/132/17 77/133/17 
f 53/134/17 51/129/17 34/128/17 55/135/17 
f 63/136/17 61/125/17 30/45/17 65/137/17 
f 20/138/17 30/45/17 55/135/17 34/128/17 
f 77/133/17 29/139/17 41/140/17 39/131/17 
f 67/141/17 65/137/17 30/45/17 29/139/17 
f 69/142/17 67/141/17 29/139/17 71/143/17 
f 73/144/17 71/143/17 29/139/17 75/145/17 
f 55/135/17 30/45/17 57/127/17 
f 17/46/17 30/45/17 20/138/17 
f 29/139/17 77/133/17 75/145/17 
f 43/146/17 41/140/17 29/139/17 22/147/17 
f 22/147/17 29/139/17 23/148/17 3/149/17 
f 4/150/17 3/149/17 23/148/17 5/151/17 
f 31/152/17 5/151/17 23/148/17 26/48/17 
f 9/153/17 31/152/17 26/48/17 10/154/17 
f 13/155/17 10/154/17 26/48/17 14/156/17 
f 26/48/17 16/47/17 14/156/17 
s 1
f 32/157/17 2/158/17 1/159/17 6/160/17 
f 7/161/17 2/158/17 32/157/17 8/162/17 
f 11/163/17 2/158/17 7/161/17 12/164/17 
f 21/165/17 2/158/17 11/163/17 15/166/17 
f 19/167/17 21/165/17 15/166/17 18/168/17 
f 35/169/17 21/165/17 19/167/17 33/170/17 
f 44/71/17 21/165/17 35/169/17 37/72/17 
f 76/171/17 78/172/17 80/173/17 47/174/17 
f 46/175/17 74/176/17 76/171/17 47/174/17 
f 52/177/17 74/176/17 46/175/17 50/178/17 
f 56/179/17 74/176/17 52/177/17 54/180/17 
f 60/181/17 74/176/17 56/179/17 58/182/17 
f 72/183/17 74/176/17 60/181/17 62/184/17 
f 64/115/17 70/118/17 72/183/17 62/184/17 
# 76 polygons - 4 triangles

#
# object SuboferMaterial
#

v  -1.9150 26.9259 -3.9780
v  -1.9150 25.1400 -6.1064
v  -1.9150 22.7339 -7.4956
v  -1.9150 19.9977 -7.9780
v  -1.9150 17.2615 -7.4956
v  -1.9150 14.8554 -6.1064
v  -1.9150 13.0695 -3.9780
v  -1.9150 12.1192 -1.3672
v  -1.9150 12.1192 1.4112
v  -1.9150 13.0695 4.0220
v  -1.9150 14.8554 6.1503
v  -1.9150 17.2615 7.5395
v  -1.9150 19.9977 8.0220
v  -1.9150 22.7339 7.5395
v  -1.9150 25.1400 6.1503
v  -1.9150 26.9259 4.0220
v  -1.9150 27.8762 1.4112
v  -1.9150 27.8762 -1.3672
v  10.0850 22.7339 -7.4956
v  10.0850 19.9977 -7.9780
v  10.0850 25.1400 -6.1064
v  10.0850 26.9259 -3.9780
v  10.0850 27.8762 -1.3672
v  10.0850 27.8762 1.4112
v  10.0850 26.9259 4.0220
v  10.0850 25.1400 6.1503
v  10.0850 22.7339 7.5395
v  10.0850 19.9977 8.0220
v  10.0850 17.2615 7.5395
v  10.0850 14.8554 6.1503
v  10.0850 13.0695 4.0220
v  10.0850 12.1192 1.4112
v  10.0850 12.1192 -1.3672
v  10.0850 13.0695 -3.9780
v  10.0850 14.8554 -6.1064
v  10.0850 17.2615 -7.4956
v  6.2098 17.2762 -0.4579
v  6.2098 17.6044 -1.3598
v  6.2098 18.2213 -2.0950
v  6.2098 19.0525 -2.5749
v  6.2098 19.9977 -2.7415
v  6.2098 20.9429 -2.5749
v  6.2098 21.7741 -2.0950
v  6.2098 22.3910 -1.3598
v  6.2098 22.7192 -0.4579
v  6.2098 22.7192 0.5019
v  6.2098 22.3910 1.4037
v  6.2098 21.7741 2.1390
v  6.2098 20.9429 2.6188
v  6.2098 19.9977 2.7855
v  6.2098 19.0525 2.6188
v  6.2098 18.2213 2.1390
v  6.2098 17.6044 1.4037
v  6.2098 17.2762 0.5019
v  4.0557 37.8503 -0.6920
v  4.0557 37.3752 -1.9974
v  4.0557 36.4823 -3.0616
v  4.0557 35.2792 -3.7562
v  4.0557 33.9111 -3.9974
v  4.0557 32.5430 -3.7562
v  4.0557 31.3400 -3.0616
v  4.0557 30.4470 -1.9974
v  4.0557 29.9719 -0.6920
v  4.0557 29.9719 0.6972
v  4.0557 30.4470 2.0026
v  4.0557 31.3400 3.0667
v  4.0557 32.5430 3.7613
v  4.0557 33.9111 4.0026
v  4.0557 35.2792 3.7613
v  4.0557 36.4823 3.0667
v  4.0557 37.3752 2.0026
v  4.0557 37.8503 0.6972
v  10.0557 35.2792 -3.7562
v  10.0557 33.9111 -3.9974
v  10.0557 36.4823 -3.0616
v  10.0557 37.3752 -1.9974
v  10.0557 37.8503 -0.6920
v  10.0557 37.8503 0.6972
v  10.0557 37.3752 2.0026
v  10.0557 36.4823 3.0667
v  10.0557 35.2792 3.7613
v  10.0557 33.9111 4.0026
v  10.0557 32.5430 3.7613
v  10.0557 31.3400 3.0667
v  10.0557 30.4470 2.0026
v  10.0557 29.9719 0.6972
v  10.0557 29.9719 -0.6920
v  10.0557 30.4470 -1.9974
v  10.0557 31.3400 -3.0616
v  10.0557 32.5430 -3.7562
v  8.1181 34.7993 1.0610
v  8.1181 34.3837 1.3010
v  8.1181 33.9111 1.3843
v  8.1181 33.4385 1.3010
v  8.1181 33.0229 1.0610
v  8.1181 32.7145 0.6934
v  8.1181 32.5503 0.2425
v  8.1181 32.5503 -0.2374
v  8.1181 32.7145 -0.6883
v  8.1181 33.0229 -1.0559
v  8.1181 33.4385 -1.2959
v  8.1181 33.9111 -1.3792
v  8.1181 34.3837 -1.2959
v  8.1181 34.7993 -1.0559
v  8.1181 35.1077 -0.6883
v  8.1181 35.2719 -0.2374
v  8.1181 35.2719 0.2425
v  8.1181 35.1077 0.6934
# 108 vertices

vn -1.0000 0.0000 0.0000
vn 0.0000 0.3420 -0.9397
vn 0.0000 0.0000 -1.0000
vn 0.0000 0.6428 -0.7660
vn 0.0000 0.8660 -0.5000
vn 0.0000 0.9848 -0.1737
vn 0.0000 0.9848 0.1737
vn 0.0000 0.8660 0.5000
vn 0.0000 0.6428 0.7660
vn 0.0000 0.3420 0.9397
vn 0.0000 0.0000 1.0000
vn 0.0000 -0.3420 0.9397
vn 0.0000 -0.6428 0.7660
vn 0.0000 -0.8660 0.5000
vn 0.0000 -0.9848 0.1737
vn 0.0000 -0.9848 -0.1737
vn 0.0000 -0.8660 -0.5000
vn 0.0000 -0.6428 -0.7660
vn 0.0000 -0.3420 -0.9397
vn 1.0000 -0.0000 -0.0000
vn 0.7994 -0.1043 0.5916
vn 0.7994 -0.3004 0.5203
vn 0.7994 -0.4602 0.3861
vn 0.7994 -0.5645 0.2055
vn 0.7994 -0.6007 -0.0000
vn 0.7994 -0.5645 -0.2055
vn 0.7994 -0.4602 -0.3861
vn 0.7994 -0.3004 -0.5203
vn 0.7994 -0.1043 -0.5916
vn 0.7994 0.1043 -0.5916
vn 0.7994 0.3004 -0.5203
vn 0.7994 0.4602 -0.3861
vn 0.7994 0.5645 -0.2055
vn 0.7994 0.6007 -0.0000
vn 0.7994 0.5645 0.2055
vn 0.7994 0.4602 0.3861
vn 0.7994 0.3004 0.5203
vn 0.7994 0.1043 0.5916
vn -1.0000 0.0000 -0.0000
vn 0.0000 -0.0000 -1.0000
vn 0.0000 0.9848 -0.1736
vn 0.0000 0.9848 0.1736
vn 0.0000 -0.0000 1.0000
vn 0.0000 -0.3421 0.9397
vn 0.0000 -0.6428 0.7661
vn 0.0000 -0.9848 0.1736
vn 0.0000 -0.9848 -0.1736
vn 1.0000 0.0000 -0.0000
vn 0.7994 -0.6008 -0.0000
vn 0.7994 0.3004 -0.5202
vn 0.7994 0.4602 -0.3862
vn 0.7994 0.6008 -0.0000
vn 0.7994 0.3004 0.5202
# 53 vertex normals

vt 0.0730 0.9499 0.0000
vt 0.0257 0.8935 0.0000
vt 0.0005 0.8243 0.0000
vt 0.0005 0.7506 0.0000
vt 0.0257 0.6814 0.0000
vt 0.0730 0.6250 0.0000
vt 0.1368 0.5882 0.0000
vt 0.2093 0.5754 0.0000
vt 0.2819 0.5882 0.0000
vt 0.3457 0.6250 0.0000
vt 0.3930 0.6814 0.0000
vt 0.4182 0.7506 0.0000
vt 0.4182 0.8243 0.0000
vt 0.3930 0.8935 0.0000
vt 0.3457 0.9499 0.0000
vt 0.2819 0.9867 0.0000
vt 0.2093 0.9995 0.0000
vt 0.1368 0.9867 0.0000
vt 0.5955 0.6489 0.0000
vt 0.5229 0.6489 0.0000
vt 0.5229 0.3308 0.0000
vt 0.5955 0.3308 0.0000
vt 0.6592 0.3308 0.0000
vt 0.6592 0.6489 0.0000
vt 0.9382 0.3229 0.0000
vt 0.9382 0.0048 0.0000
vt 0.9947 0.0048 0.0000
vt 0.9947 0.3229 0.0000
vt 0.8690 0.3229 0.0000
vt 0.8690 0.0048 0.0000
vt 0.7954 0.3229 0.0000
vt 0.7954 0.0048 0.0000
vt 0.7262 0.0048 0.0000
vt 0.7262 0.3229 0.0000
vt 0.6698 0.0048 0.0000
vt 0.6698 0.3229 0.0000
vt 0.9921 0.8571 0.0000
vt 0.9921 0.9209 0.0000
vt 0.6740 0.9209 0.0000
vt 0.6740 0.8571 0.0000
vt 0.6740 0.7846 0.0000
vt 0.9921 0.7846 0.0000
vt 0.9921 0.7121 0.0000
vt 0.6740 0.7121 0.0000
vt 0.6740 0.6483 0.0000
vt 0.9921 0.6483 0.0000
vt 0.7262 0.6446 0.0000
vt 0.6698 0.6446 0.0000
vt 0.6698 0.3265 0.0000
vt 0.7262 0.3265 0.0000
vt 0.7954 0.3265 0.0000
vt 0.7954 0.6446 0.0000
vt 0.8690 0.3265 0.0000
vt 0.8690 0.6446 0.0000
vt 0.9382 0.3265 0.0000
vt 0.9382 0.6446 0.0000
vt 0.9947 0.6446 0.0000
vt 0.9947 0.3265 0.0000
vt 0.3866 0.6489 0.0000
vt 0.3866 0.3308 0.0000
vt 0.4504 0.3308 0.0000
vt 0.4504 0.6489 0.0000
vt 0.2344 0.1437 0.0000
vt 0.2564 0.1564 0.0000
vt 0.2728 0.1759 0.0000
vt 0.2815 0.1998 0.0000
vt 0.2815 0.2253 0.0000
vt 0.2728 0.2492 0.0000
vt 0.2564 0.2687 0.0000
vt 0.2344 0.2814 0.0000
vt 0.2093 0.2858 0.0000
vt 0.1843 0.2814 0.0000
vt 0.1623 0.2687 0.0000
vt 0.1459 0.2492 0.0000
vt 0.1372 0.2253 0.0000
vt 0.1372 0.1998 0.0000
vt 0.1459 0.1759 0.0000
vt 0.1623 0.1564 0.0000
vt 0.1843 0.1437 0.0000
vt 0.2093 0.1393 0.0000
vt 0.4182 0.2494 0.0000
vt 0.3930 0.3186 0.0000
vt 0.3457 0.3750 0.0000
vt 0.2819 0.4118 0.0000
vt 0.2093 0.4246 0.0000
vt 0.1368 0.4118 0.0000
vt 0.0730 0.3750 0.0000
vt 0.0257 0.3186 0.0000
vt 0.0005 0.2494 0.0000
vt 0.0005 0.1757 0.0000
vt 0.0257 0.1065 0.0000
vt 0.0730 0.0501 0.0000
vt 0.1368 0.0133 0.0000
vt 0.2093 0.0005 0.0000
vt 0.2819 0.0133 0.0000
vt 0.3457 0.0501 0.0000
vt 0.3930 0.1065 0.0000
vt 0.4182 0.1757 0.0000
# 98 texture coords

o SuboferMaterial
g SuboferMaterial
usemtl 07___Default
s 1
f 81/185/29 82/186/29 83/187/29 84/188/29 85/189/29 86/190/29 87/191/29 88/192/29 89/193/29 90/194/29 91/195/29 92/196/29 93/197/29 94/198/29 95/199/29 96/200/29 97/201/29 98/202/29 
s 8
f 99/203/30 100/204/31 84/205/31 83/206/30 
f 82/207/32 101/208/32 99/203/30 83/206/30 
f 81/209/33 102/210/33 101/211/32 82/212/32 
f 102/210/33 81/209/33 98/213/34 103/214/34 
f 97/215/35 104/216/35 103/214/34 98/213/34 
f 105/217/36 104/216/35 97/215/35 96/218/36 
f 106/219/37 105/217/36 96/218/36 95/220/37 
f 107/221/38 106/222/37 95/223/37 94/224/38 
f 93/225/39 108/226/39 107/221/38 94/224/38 
f 109/227/40 108/226/39 93/225/39 92/228/40 
f 92/228/40 91/229/41 110/230/41 109/227/40 
f 111/231/42 110/232/41 91/233/41 90/234/42 
f 89/235/43 112/236/43 111/231/42 90/234/42 
f 88/237/44 113/238/44 112/236/43 89/235/43 
f 87/239/45 114/240/45 113/238/44 88/237/44 
f 115/241/46 114/240/45 87/239/45 86/242/46 
f 115/243/46 86/244/46 85/245/47 116/246/47 
f 84/205/31 100/204/31 116/246/47 85/245/47 
s 1
f 117/247/48 118/248/48 119/249/48 120/250/48 121/251/48 122/252/48 123/253/48 124/254/48 125/255/48 126/256/48 127/257/48 128/258/48 129/259/48 130/260/48 131/261/48 132/262/48 133/263/48 134/264/48 
s off
f 100/265/49 99/266/49 122/252/49 121/251/49 
f 123/253/50 122/252/50 99/266/50 101/267/50 
f 124/254/51 123/253/51 101/267/51 102/268/51 
f 102/268/52 103/269/52 125/255/52 124/254/52 
f 104/270/53 126/256/53 125/255/53 103/269/53 
f 126/256/54 104/270/54 105/271/54 127/257/54 
f 106/272/55 128/258/55 127/257/55 105/271/55 
f 129/259/56 128/258/56 106/272/56 107/273/56 
f 107/273/57 108/274/57 130/260/57 129/259/57 
f 109/275/58 131/261/58 130/260/58 108/274/58 
f 110/276/59 132/262/59 131/261/59 109/275/59 
f 132/262/60 110/276/60 111/277/60 133/263/60 
f 133/263/61 111/277/61 112/278/61 134/264/61 
f 134/264/62 112/278/62 113/279/62 117/247/62 
f 117/247/63 113/279/63 114/280/63 118/248/63 
f 118/248/64 114/280/64 115/281/64 119/249/64 
f 115/281/65 116/282/65 120/250/65 119/249/65 
f 121/251/66 120/250/66 116/282/66 100/265/66 
s 1
f 135/202/67 136/185/67 137/186/67 138/187/67 139/188/67 140/189/67 141/190/67 142/191/67 143/192/67 144/193/67 145/194/67 146/195/67 147/196/67 148/197/67 149/198/67 150/199/67 151/200/67 152/201/67 
s 8
f 138/206/30 153/203/30 154/204/68 139/205/68 
f 138/206/30 137/207/32 155/208/32 153/203/30 
f 156/210/33 155/211/32 137/212/32 136/209/33 
f 135/213/69 157/214/69 156/210/33 136/209/33 
f 158/216/70 157/214/69 135/213/69 152/215/70 
f 151/218/36 159/217/36 158/216/70 152/215/70 
f 160/219/37 159/217/36 151/218/36 150/220/37 
f 149/224/38 161/221/38 160/222/37 150/223/37 
f 148/225/71 162/226/71 161/221/38 149/224/38 
f 147/228/72 163/227/72 162/226/71 148/225/71 
f 147/228/72 146/229/73 164/230/73 163/227/72 
f 145/234/42 165/231/42 164/232/73 146/233/73 
f 145/234/42 144/235/74 166/236/74 165/231/42 
f 143/237/75 167/238/75 166/236/74 144/235/74 
f 143/237/75 142/239/45 168/240/45 167/238/75 
f 141/242/46 169/241/46 168/240/45 142/239/45 
f 141/244/46 140/245/47 170/246/47 169/243/46 
f 140/245/47 139/205/68 154/204/68 170/246/47 
s 1
f 171/258/76 172/259/76 173/260/76 174/261/76 175/262/76 176/263/76 177/264/76 178/247/76 179/248/76 180/249/76 181/250/76 182/251/76 183/252/76 184/253/76 185/254/76 186/255/76 187/256/76 188/257/76 
s off
f 154/265/49 153/266/49 183/252/49 182/251/49 
f 155/267/50 184/253/50 183/252/50 153/266/50 
f 156/268/51 185/254/51 184/253/51 155/267/51 
f 157/269/52 186/255/52 185/254/52 156/268/52 
f 186/255/77 157/269/77 158/270/77 187/256/77 
f 159/271/54 188/257/54 187/256/54 158/270/54 
f 171/258/55 188/257/55 159/271/55 160/272/55 
f 161/273/56 172/259/56 171/258/56 160/272/56 
f 173/260/57 172/259/57 161/273/57 162/274/57 
f 163/275/58 174/261/58 173/260/58 162/274/58 
f 164/276/78 175/262/78 174/261/78 163/275/78 
f 165/277/79 176/263/79 175/262/79 164/276/79 
f 166/278/61 177/264/61 176/263/61 165/277/61 
f 167/279/80 178/247/80 177/264/80 166/278/80 
f 168/280/63 179/248/63 178/247/63 167/279/63 
f 169/281/64 180/249/64 179/248/64 168/280/64 
f 169/281/81 170/282/81 181/250/81 180/249/81 
f 181/250/66 170/282/66 154/265/66 182/251/66 
# 76 polygons

